{
  "name": "bs-elm-es6",
  "version": "0.0.2",
  "sources": {
    "dir" : "src",
    "subdirs" : true
  },
  "package-specs": {
    "module": "commonjs",
    "in-source": true
  },
  "suffix": ".bs.js",
  "bs-dependencies": [

  ],
  "warnings": {
    "error" : "+101"
  },
  "namespace": "ElmES6",
  "refmt": 3
}
